…
### Make predictions for test data


```r
email_pred <- predict(email_fit, test_data, type = "prob") %>% 
  bind_cols(test_data) 
#> Warning: There are new levels in a factor: NA

email_pred
#> # A tibble: 784 x 23
#>    .pred_0  .pred_1 spam  to_multiple  from    cc sent_email time                image attach dollar
#>      <dbl>    <dbl> <fct>       <dbl> <dbl> <int>      <dbl> <dttm>              <dbl>  <dbl>  <dbl>
#>  1   0.996 0.00361  0               1     1     0          1 2012-01-01 12:55:06     0      0      0
#>  2   0.919 0.0813   0               0     1     0          0 2012-01-01 16:08:59     0      0      0
#>  3   0.957 0.0435   0               0     1     0          1 2012-01-01 13:23:44     0      0      0
#>  4   0.999 0.00114  0               0     1     1          1 2012-01-01 14:38:32     0      0      0
#>  5   0.994 0.00550  0               0     1     0          1 2012-01-01 20:40:40     0      0      0
#>  6   0.994 0.00602  0               0     1     0          1 2012-01-01 21:07:20     0      0      0
#>  7   0.888 0.112    0               0     1     0          0 2012-01-01 21:08:14     0      0      0
#>  8   0.994 0.00570  0               0     1     0          0 2012-01-01 21:51:24     0      0      0
#>  9   0.995 0.00521  0               0     1     1          0 2012-01-01 22:16:39     0      0      0
#> 10   1.00  0.000249 0               1     1     3          0 2012-01-02 08:41:11     0      0      0
#> # ... with 774 more rows, and 12 more variables: winner <fct>, inherit <dbl>, viagra <dbl>,
#> #   password <dbl>, num_char <dbl>, line_breaks <int>, format <dbl>, re_subj <dbl>,
#> #   exclaim_subj <dbl>, urgent_subj <dbl>, exclaim_mess <dbl>, number <fct>
```
…
